[30.0] Nodo 4 falhou
[40.0] Nodo 5 falhou
[45.0] Nodo 0 testou 1 como sem-falha
[45.0] Nodo 1 testou 2 como sem-falha
[45.0] Nodo 2 testou 3 como sem-falha
[45.0] Nodo 3 testou 4 como falho
[45.0] Nodo 6 testou 7 como sem-falha
[45.0] Nodo 7 testou 0 como sem-falha
[53.0] Nodo 7 falhou
[55.0] Nodo 2 falhou
[57.5] Nodo 4 recuperado
[58.0] Nodo 0 testou 1 como sem-falha
[58.0] Nodo 1 testou 2 como falho
[58.0] Nodo 3 testou 4 como sem-falha
[58.0] Nodo 4 testou 5 como falho
[58.0] Nodo 6 testou 7 como falho
[59.0] Nodo 1 falhou
[68.0] Nodo 7 recuperado
[130.0] Nodo 4 falhou
[155.0] Nodo 4 recuperado
[180.0] Nodo 0 testou 1 como falho
[180.0] Nodo 3 testou 4 como sem-falha
[180.0] Nodo 4 testou 5 como falho
[180.0] Nodo 6 testou 7 como sem-falha
[180.0] Nodo 7 testou 0 como sem-falha
[181.0] Nodo 2 recuperado
[211.0] Nodo 1 recuperado
[255.0] Nodo 5 recuperado
[300.0] Nodo 0 testou 1 como sem-falha
[300.0] Nodo 1 testou 2 como sem-falha
[300.0] Nodo 2 testou 3 como sem-falha
[300.0] Nodo 3 testou 4 como sem-falha
[300.0] Nodo 4 testou 5 como sem-falha
[300.0] Nodo 5 testou 6 como sem-falha
[300.0] Nodo 6 testou 7 como sem-falha
[300.0] Nodo 7 testou 0 como sem-falha
