NODOS: 8
EVENTOS:
	INTERVALO DE TESTES
	INTERVALO DE TESTES
	INTERVALO DE TESTES
	BROADCAST: 0 
	BROADCAST: 3 
	BROADCAST: 7 
	FALHA: 3 
	INTERVALO DE TESTES
	INTERVALO DE TESTES
	INTERVALO DE TESTES
	BROADCAST: 0 
	BROADCAST: 4 
	BROADCAST: 7 
[30.0] [BROADCAST] 0: SEND(1,2,4,)
[31.0] [RECEIVE] 1:(src=0,s=1) 
[31.0] [RECEIVE] 2:(src=0,s=2) PROPAGATE(3,)
[31.0] [RECEIVE] 4:(src=0,s=3) PROPAGATE(5,6,)
[32.0] [RECEIVE] 3:(src=2,s=1) 
[32.0] [RECEIVE] 5:(src=4,s=1) 
[32.0] [RECEIVE] 6:(src=4,s=2) PROPAGATE(7,)
[33.0] [RECEIVE] 7:(src=6,s=1) 
[40.0] [BROADCAST] 3: SEND(2,1,7,)
[41.0] [RECEIVE] 2:(src=3,s=1) 
[41.0] [RECEIVE] 1:(src=3,s=2) PROPAGATE(0,)
[41.0] [RECEIVE] 7:(src=3,s=3) PROPAGATE(6,5,)
[42.0] [RECEIVE] 0:(src=1,s=1) 
[42.0] [RECEIVE] 6:(src=7,s=1) 
[42.0] [RECEIVE] 5:(src=7,s=2) PROPAGATE(4,)
[43.0] [RECEIVE] 4:(src=5,s=1) 
[50.0] [BROADCAST] 7: SEND(6,5,3,)
[51.0] [RECEIVE] 6:(src=7,s=1) 
[51.0] [RECEIVE] 5:(src=7,s=2) PROPAGATE(4,)
[51.0] [RECEIVE] 3:(src=7,s=3) PROPAGATE(2,1,)
[52.0] [RECEIVE] 4:(src=5,s=1) 
[52.0] [RECEIVE] 2:(src=3,s=1) 
[52.0] [RECEIVE] 1:(src=3,s=2) PROPAGATE(0,)
[53.0] [RECEIVE] 0:(src=1,s=1) 
[60.0] [FALHA] 3
[100.0] [BROADCAST] 0: SEND(1,2,4,)
[101.0] [RECEIVE] 1:(src=0,s=1) 
[101.0] [RECEIVE] 2:(src=0,s=2) PROPAGATE()
[101.0] [RECEIVE] 4:(src=0,s=3) PROPAGATE(5,6,)
[102.0] [RECEIVE] 5:(src=4,s=1) 
[102.0] [RECEIVE] 6:(src=4,s=2) PROPAGATE(7,)
[103.0] [RECEIVE] 7:(src=6,s=1) 
[110.0] [BROADCAST] 4: SEND(5,6,0,)
[111.0] [RECEIVE] 5:(src=4,s=1) 
[111.0] [RECEIVE] 6:(src=4,s=2) PROPAGATE(7,)
[111.0] [RECEIVE] 0:(src=4,s=3) PROPAGATE(1,2,)
[112.0] [RECEIVE] 7:(src=6,s=1) 
[112.0] [RECEIVE] 1:(src=0,s=1) 
[112.0] [RECEIVE] 2:(src=0,s=2) PROPAGATE()
[120.0] [BROADCAST] 7: SEND(6,5,2,)
[121.0] [RECEIVE] 6:(src=7,s=1) 
[121.0] [RECEIVE] 5:(src=7,s=2) PROPAGATE(4,)
[121.0] [RECEIVE] 2:(src=7,s=3) PROPAGATE(0,)
[122.0] [RECEIVE] 4:(src=5,s=1) 
[122.0] [RECEIVE] 0:(src=2,s=2) PROPAGATE(1,)
[123.0] [RECEIVE] 1:(src=0,s=1) 
